﻿{
	"$schema": "http://json.schemastore.org/launchsettings.json",
	"iisSettings": {
		"windowsAuthentication": false,
		"anonymousAuthentication": true,
		"iisExpress": {
			"applicationUrl": "http://localhost:5710",
			"sslPort": 44380
		}
	},
	"profiles": {
		"IIS Express": {
			"commandName": "IISExpress",
			"launchBrowser": true,
			"launchUrl": "swagger/index.html",
			"environmentVariables": {
				"ASPNETCORE_ENVIRONMENT": "Development"
			}
		}
	}
}